
function asdf(){
var trs = document.getElementsByClassName("draggable_tr");

    for (var i = 0; i < trs.length; i++) 
    { 
        trs[i].addEventListener("onmousedown", function(e) {

            console.log(e.target.parentNode);

            // var x = document.createElement("TABLE");
            // console.log(e.target);
            // x.setAttribute("id", "myTable");
            // x.style.position = 'absolute';
            // document.body.appendChild(x);
            // document.getElementById("myTable").appendChild(e.target.parentNode.cloneNode(true));
        
            // x.style.position = 'absolute';
            // moveAt(e);
            // document.body.appendChild(x);
            // x.style.zIndex = 1000;
    
            // function moveAt(e)  
            // {
            //   x.style.left = e.pageX - x.offsetWidth / 2 + 'px';
            //   x.style.top = e.pageY - x.offsetHeight / 2 + 'px';
            // }
          
            // document.onmousemove = function(e) {
            //   moveAt(e);
            // }
            
            // x.onmouseup = function() {
            //   document.onmousemove = null;
            //   x.onmouseup = null;
            //   document.getElementById("myTable").outerHTML = "";
            //   SetStyleForCalcTable(false);
            // }
        
            // x.ondragstart = function() {
            //   console.log("start");
            //     return false;
            //   };
          });
    }
}

// document.getElementsByClassName("draggable_tr").addEventListener("mousedown", function(e) {

//     var x = document.createElement("TABLE");
//     console.log(e.target);
//     x.setAttribute("id", "myTable");
//     x.style.position = 'absolute';
//     document.body.appendChild(x);
//     document.getElementById("myTable").appendChild(e.target.parentNode.cloneNode(true));

//     x.style.position = 'absolute';
//     moveAt(e);
//     document.body.appendChild(x);
//     x.style.zIndex = 1000;


//     function moveAt(e)  
//     {
//       x.style.left = e.pageX - x.offsetWidth / 2 + 'px';
//       x.style.top = e.pageY - x.offsetHeight / 2 + 'px';
//     }
  
//     document.onmousemove = function(e) {
//       moveAt(e);
//     }
    
//     x.onmouseup = function() {
//       document.onmousemove = null;
//       x.onmouseup = null;
//       document.getElementById("myTable").outerHTML = "";
//       SetStyleForCalcTable(false);
//     }

//     x.ondragstart = function() {
//       console.log("start");
//         return false;
//       };
//   });